NOME             > CATEGORIA          > DESCRICAO      
sublime-text     > Development        > IDE  
code             > Development        > IDE              
pycharm          > Development        > IDE Python         
balena-etcher    > Acessory           > USB Flash
virtualbox       > System             > VirtualBox
appcli           > System             > Instalador de software via linha de comando
tor-browser      > Internet           > Navegador Tor Browser
freetube         > Internet           > Player para o Youtube
wine             > Wine               > Wine
stacer           > System             > Monitor de sistema
mscorefonts      > System             > Fonts Microsoft
sqlite3          > System             > SQLite
sqlite-browser   > System             > SQLite
poweriso         > Multimidia         > Poweriso
android-studio   > Development        > IDE
netbeans         > Development        > IDE
youtube-dl       > Internet           > Youtube
